<svg width="17" height="17" viewBox="0 0 17 17" fill="none" xmlns="http://www.w3.org/2000/svg">
<path fill-rule="evenodd" clip-rule="evenodd" d="M12.5231 11.3289L16.7532 15.559C17.0822 15.8881 17.0833 16.4205 16.7504 16.7535C16.4198 17.0841 15.879 17.0793 15.5559 16.7562L11.3258 12.5261C8.66893 14.5938 4.82577 14.4067 2.38366 11.9645C-0.261187 9.31969 -0.261187 5.03155 2.38366 2.38671C5.0285 -0.258135 9.31664 -0.258135 11.9615 2.38671C14.4036 4.82883 14.5908 8.67198 12.5231 11.3289ZM10.7643 10.7673C12.7479 8.78368 12.7479 5.56757 10.7643 3.58394C8.78062 1.6003 5.56452 1.6003 3.58089 3.58394C1.59725 5.56757 1.59725 8.78368 3.58089 10.7673C5.56452 12.7509 8.78062 12.7509 10.7643 10.7673Z" fill="#19242E"/>
</svg>
