<svg width="16" height="14" viewBox="0 0 16 14" fill="none" xmlns="http://www.w3.org/2000/svg">
<path d="M16 1.87173C15.4111 2.14201 14.7785 2.32389 14.1145 2.40592C14.7927 1.9862 15.3126 1.32165 15.5576 0.529267C14.9237 0.917826 14.221 1.20018 13.4727 1.35281C12.874 0.693339 12.0211 0.28125 11.0771 0.28125C9.26426 0.28125 7.79478 1.80051 7.79478 3.67335C7.79478 3.93917 7.82432 4.19864 7.8797 4.44602C5.1518 4.30484 2.73343 2.9541 1.1138 0.901291C0.831968 1.40241 0.670128 1.98493 0.670128 2.60752C0.670128 3.784 1.24918 4.82249 2.12976 5.43045C1.59194 5.41265 1.0855 5.26002 0.643052 5.00628C0.643052 5.02091 0.643052 5.03426 0.643052 5.04889C0.643052 6.69279 1.77409 8.06388 3.27618 8.37485C3.00112 8.45244 2.71066 8.49377 2.41098 8.49377C2.19992 8.49377 1.99377 8.47215 1.79378 8.43336C2.21161 9.78091 3.42387 10.7622 4.86012 10.7895C3.73709 11.6995 2.32176 12.242 0.783355 12.242C0.518749 12.242 0.257221 12.2261 0 12.1943C1.45287 13.1565 3.17772 13.718 5.03181 13.718C11.0697 13.718 14.3705 8.5491 14.3705 4.06636C14.3705 3.91946 14.3674 3.77319 14.3613 3.62756C15.0031 3.1487 15.56 2.55155 16 1.87173Z" fill="#19242E"/>
</svg>
